Brian_Witarsa_Final_Project
…
ℹ Use `spec()` to retrieve the full column specification for this data.
ℹ Specify the column types or set `show_col_types = FALSE` to quiet this message.

cols <- c("Q6A", "Q6B", "Q6C", "Q6D", "Q6E", "Q6F", "Q6G", 
          "Q6H", "Q6I", "Q6J", "Q6K", "Q6L", "Q6M", "Q6N")

df <- data[cols]
df

# A tibble: 3,234 × 14
     Q6A   Q6B   Q6C   Q6D   Q6E   Q6F   Q6G   Q6H   Q6I   Q6J   Q6K   Q6L   Q6M
   <dbl> <dbl> <dbl> <dbl> <dbl> <dbl> <dbl> <dbl> <dbl> <dbl> <dbl> <dbl> <dbl>
 1     5     3     3     4     4     4     6     6     3     6     6     6     6
 2     6     3     3     4     4     6     6     6     4     6     4     6     6
 3     6     6     3     4     3     5     6     6     6     6     6     6     6
 4     3     6     6     3     4     3     6     6     2     6     6     6     6
 5     5     5     5     5     4     5     5     5     5     5     5     5     5
 6     6     6     6     4     5     5     6     6     6     6     5     6     6
 7     3     2     2     3     3     4     3     3     4     3     4     3     6
 8     5     5     5     5     5     5     5     5     5     5     5     5     5
 9     5     5     5     5     5     4     5     5     5     5     5     6     6
10     5     4     4     4     4     4     6     6     4     5     6     6     6
# ℹ 3,224 more rows
# ℹ 1 more variable: Q6N <dbl>
…
Null Hypothesis: There is no difference in mean F1 scores between males and females Alternative Hypothesis: There is a significant difference in mean F1 scores between males and females

The Gender effect was statistically significant (p = 0.001). Female passengers reported higher satisfaction with terminal navigation and information systems than males.

The Age effect was marginal (p = 0.08). It suggests that older travelers may rate navigation better, but since p > 0.05, it is not statistically significant.

So overall, female passengers tend to rate the airport’s signage and navigation systems more positively than males. There is a non-significant tendency for older passengers to do the same.

Part Four

free_response <- data["Q7_text_All"]
free_response

# A tibble: 3,234 × 1
   Q7_text_All                                                                  
   <chr>                                                                        
 1 " Airport Layout-Terminals too far away/confusing/too difficult/takes too lo…
 2 " Food too expensive  Positive comment about wifi  Security/Customs lines/pr…
 3 " Signage outside airport confusing/hard to get to airport/difficult to find…
 4 " Security/Customs lines/procedures long/inefficient/ineffective  Signage in…
 5 " Security/Customs lines/procedures long/inefficient/ineffective"            
 6  <NA>                                                                        
 7 " General cleanliness neg comment  Need more artwork/exhibitions/change artw…
 8  <NA>                                                                        
 9  <NA>                                                                        
10 " Wifi-not free long enough/difficult to access/doesn’t cover entire airport…
# ℹ 3,224 more rows
…
